{
    "0001" : {
              "host"     : "tamar-stg-site9999-dbinstance.cx7s2eephnro.ap-northeast-1.rds.amazonaws.com",
              "port"     : "3306",
              "user"     : "tamaruser",
              "password" : "#!TawaR?u5er",
              "db_name"  : "DB_TAMAR_0001"
             },
    "0003" : {
              "host"     : "tamar-stg-site9999-dbinstance.cx7s2eephnro.ap-northeast-1.rds.amazonaws.com",
              "port"     : "3306",
              "user"     : "tamaruser",
              "password" : "#!TawaR?u5er",
              "db_name"  : "DB_TAMAR_0003"
             },
    "0004" : {
              "host"     : "tamar-stg-site9999-dbinstance.cx7s2eephnro.ap-northeast-1.rds.amazonaws.com",
              "port"     : "3306",
              "user"     : "tamaruser",
              "password" : "#!TawaR?u5er",
              "db_name"  : "DB_TAMAR_0004"
             },
    "0005" : {
              "host"     : "tamar-stg-site9999-dbinstance.cx7s2eephnro.ap-northeast-1.rds.amazonaws.com",
              "port"     : "3306",
              "user"     : "tamaruser",
              "password" : "#!TawaR?u5er",
              "db_name"  : "DB_TAMAR_0005"
             },
    "0006" : {
              "host"     : "tamar-stg-site9999-dbinstance.cx7s2eephnro.ap-northeast-1.rds.amazonaws.com",
              "port"     : "3306",
              "user"     : "tamaruser",
              "password" : "#!TawaR?u5er",
              "db_name"  : "DB_TAMAR_0006"
             },
    "0007" : {
              "host"     : "tamar-stg-site9999-dbinstance.cx7s2eephnro.ap-northeast-1.rds.amazonaws.com",
              "port"     : "3306",
              "user"     : "tamaruser",
              "password" : "#!TawaR?u5er",
              "db_name"  : "DB_TAMAR_0007"
             },
    "0008" : {
              "host"     : "tamar-stg-site9999-dbinstance.cx7s2eephnro.ap-northeast-1.rds.amazonaws.com",
              "port"     : "3306",
              "user"     : "tamaruser",
              "password" : "#!TawaR?u5er",
              "db_name"  : "DB_TAMAR_0008"
             },
    "0009" : {
              "host"     : "tamar-stg-site9999-dbinstance.cx7s2eephnro.ap-northeast-1.rds.amazonaws.com",
              "port"     : "3306",
              "user"     : "tamaruser",
              "password" : "#!TawaR?u5er",
              "db_name"  : "DB_TAMAR_0009"
             },
    "0010" : {
              "host"     : "tamar-stg-site9999-dbinstance.cx7s2eephnro.ap-northeast-1.rds.amazonaws.com",
              "port"     : "3306",
              "user"     : "tamaruser",
              "password" : "#!TawaR?u5er",
              "db_name"  : "DB_TAMAR_0010"
             },
    "0011" : {
              "host"     : "tamar-stg-site9999-dbinstance.cx7s2eephnro.ap-northeast-1.rds.amazonaws.com",
              "port"     : "3306",
              "user"     : "tamaruser",
              "password" : "#!TawaR?u5er",
              "db_name"  : "DB_TAMAR_0011"
             },
    "0012" : {
              "host"     : "tamar-stg-site9999-dbinstance.cx7s2eephnro.ap-northeast-1.rds.amazonaws.com",
              "port"     : "3306",
              "user"     : "tamaruser",
              "password" : "#!TawaR?u5er",
              "db_name"  : "DB_TAMAR_0012"
             },
    "0013" : {
              "host"     : "tamar-stg-site9999-dbinstance.cx7s2eephnro.ap-northeast-1.rds.amazonaws.com",
              "port"     : "3306",
              "user"     : "tamaruser",
              "password" : "#!TawaR?u5er",
              "db_name"  : "DB_TAMAR_0013"
             },
    "0014" : {
              "host"     : "tamar-stg-site9999-dbinstance.cx7s2eephnro.ap-northeast-1.rds.amazonaws.com",
              "port"     : "3306",
              "user"     : "tamaruser",
              "password" : "#!TawaR?u5er",
              "db_name"  : "DB_TAMAR_0014"
             },
    "0018" : {
              "host"     : "tamar-stg-site9999-dbinstance.cx7s2eephnro.ap-northeast-1.rds.amazonaws.com",
              "port"     : "3306",
              "user"     : "tamaruser",
              "password" : "#!TawaR?u5er",
              "db_name"  : "DB_TAMAR_0018"
             },
    "0019" : {
              "host"     : "tamar-stg-site9999-dbinstance.cx7s2eephnro.ap-northeast-1.rds.amazonaws.com",
              "port"     : "3306",
              "user"     : "tamaruser",
              "password" : "#!TawaR?u5er",
              "db_name"  : "DB_TAMAR_0019"
             },
    "0020" : {
              "host"     : "tamar-stg-site9999-dbinstance.cx7s2eephnro.ap-northeast-1.rds.amazonaws.com",
              "port"     : "3306",
              "user"     : "tamaruser",
              "password" : "#!TawaR?u5er",
              "db_name"  : "DB_TAMAR_0020"
             },
    "0021" : {
              "host"     : "tamar-stg-site9999-dbinstance.cx7s2eephnro.ap-northeast-1.rds.amazonaws.com",
              "port"     : "3306",
              "user"     : "tamaruser",
              "password" : "#!TawaR?u5er",
              "db_name"  : "DB_TAMAR_0021"
             },
    "0022" : {
              "host"     : "tamar-stg-site9999-dbinstance.cx7s2eephnro.ap-northeast-1.rds.amazonaws.com",
              "port"     : "3306",
              "user"     : "tamaruser",
              "password" : "#!TawaR?u5er",
              "db_name"  : "DB_TAMAR_0022"
             },
    "0023" : {
              "host"     : "tamar-stg-site9999-dbinstance.cx7s2eephnro.ap-northeast-1.rds.amazonaws.com",
              "port"     : "3306",
              "user"     : "tamaruser",
              "password" : "#!TawaR?u5er",
              "db_name"  : "DB_TAMAR_0023"
             },
    "0025" : {
              "host"     : "tamar-stg-site9999-dbinstance.cx7s2eephnro.ap-northeast-1.rds.amazonaws.com",
              "port"     : "3306",
              "user"     : "tamaruser",
              "password" : "#!TawaR?u5er",
              "db_name"  : "DB_TAMAR_0025"
             },
    "0026" : {
              "host"     : "tamar-stg-site9999-dbinstance.cx7s2eephnro.ap-northeast-1.rds.amazonaws.com",
              "port"     : "3306",
              "user"     : "tamaruser",
              "password" : "#!TawaR?u5er",
              "db_name"  : "DB_TAMAR_0026"
             },
    "0027" : {
              "host"     : "tamar-stg-site9999-dbinstance.cx7s2eephnro.ap-northeast-1.rds.amazonaws.com",
              "port"     : "3306",
              "user"     : "tamaruser",
              "password" : "#!TawaR?u5er",
              "db_name"  : "DB_TAMAR_0027"
             },
    "0028" : {
              "host"     : "tamar-stg-site9999-dbinstance.cx7s2eephnro.ap-northeast-1.rds.amazonaws.com",
              "port"     : "3306",
              "user"     : "tamaruser",
              "password" : "#!TawaR?u5er",
              "db_name"  : "DB_TAMAR_0028"
             },
    "0029" : {
              "host"     : "tamar-stg-site9999-dbinstance.cx7s2eephnro.ap-northeast-1.rds.amazonaws.com",
              "port"     : "3306",
              "user"     : "tamaruser",
              "password" : "#!TawaR?u5er",
              "db_name"  : "DB_TAMAR_0029"
             },
    "0030" : {
              "host"     : "tamar-stg-site9999-dbinstance.cx7s2eephnro.ap-northeast-1.rds.amazonaws.com",
              "port"     : "3306",
              "user"     : "tamaruser",
              "password" : "#!TawaR?u5er",
              "db_name"  : "DB_TAMAR_0030"
             },
    "0033" : {
              "host"     : "tamar-stg-site9999-dbinstance.cx7s2eephnro.ap-northeast-1.rds.amazonaws.com",
              "port"     : "3306",
              "user"     : "tamaruser",
              "password" : "#!TawaR?u5er",
              "db_name"  : "DB_TAMAR_0033"
             },
    "0034" : {
              "host"     : "tamar-stg-site9999-dbinstance.cx7s2eephnro.ap-northeast-1.rds.amazonaws.com",
              "port"     : "3306",
              "user"     : "tamaruser",
              "password" : "#!TawaR?u5er",
              "db_name"  : "DB_TAMAR_0034"
             },
    "0035" : {
              "host"     : "tamar-stg-site9999-dbinstance.cx7s2eephnro.ap-northeast-1.rds.amazonaws.com",
              "port"     : "3306",
              "user"     : "tamaruser",
              "password" : "#!TawaR?u5er",
              "db_name"  : "DB_TAMAR_0035"
             },
    "0036" : {
              "host"     : "tamar-stg-site9999-dbinstance.cx7s2eephnro.ap-northeast-1.rds.amazonaws.com",
              "port"     : "3306",
              "user"     : "tamaruser",
              "password" : "#!TawaR?u5er",
              "db_name"  : "DB_TAMAR_0036"
             },
    "0037" : {
              "host"     : "tamar-stg-site9999-dbinstance.cx7s2eephnro.ap-northeast-1.rds.amazonaws.com",
              "port"     : "3306",
              "user"     : "tamaruser",
              "password" : "#!TawaR?u5er",
              "db_name"  : "DB_TAMAR_0037"
             },
    "0038" : {
              "host"     : "tamar-stg-site9999-dbinstance.cx7s2eephnro.ap-northeast-1.rds.amazonaws.com",
              "port"     : "3306",
              "user"     : "tamaruser",
              "password" : "#!TawaR?u5er",
              "db_name"  : "DB_TAMAR_0038"
             },
    "0039" : {
              "host"     : "tamar-stg-site9999-dbinstance.cx7s2eephnro.ap-northeast-1.rds.amazonaws.com",
              "port"     : "3306",
              "user"     : "tamaruser",
              "password" : "#!TawaR?u5er",
              "db_name"  : "DB_TAMAR_0039"
             },
    "0041" : {
              "host"     : "tamar-stg-site9999-dbinstance.cx7s2eephnro.ap-northeast-1.rds.amazonaws.com",
              "port"     : "3306",
              "user"     : "tamaruser",
              "password" : "#!TawaR?u5er",
              "db_name"  : "DB_TAMAR_0041"
             },
    "0042" : {
              "host"     : "tamar-stg-site9999-dbinstance.cx7s2eephnro.ap-northeast-1.rds.amazonaws.com",
              "port"     : "3306",
              "user"     : "tamaruser",
              "password" : "#!TawaR?u5er",
              "db_name"  : "DB_TAMAR_0042"
             },
    "0043" : {
              "host"     : "tamar-stg-site9999-dbinstance.cx7s2eephnro.ap-northeast-1.rds.amazonaws.com",
              "port"     : "3306",
              "user"     : "tamaruser",
              "password" : "#!TawaR?u5er",
              "db_name"  : "DB_TAMAR_0043"
             },
    "0044" : {
              "host"     : "tamar-stg-site9999-dbinstance.cx7s2eephnro.ap-northeast-1.rds.amazonaws.com",
              "port"     : "3306",
              "user"     : "tamaruser",
              "password" : "#!TawaR?u5er",
              "db_name"  : "DB_TAMAR_0044"
             },
    "0045" : {
              "host"     : "tamar-stg-site9999-dbinstance.cx7s2eephnro.ap-northeast-1.rds.amazonaws.com",
              "port"     : "3306",
              "user"     : "tamaruser",
              "password" : "#!TawaR?u5er",
              "db_name"  : "DB_TAMAR_0045"
             },
    "0046" : {
              "host"     : "tamar-stg-site9999-dbinstance.cx7s2eephnro.ap-northeast-1.rds.amazonaws.com",
              "port"     : "3306",
              "user"     : "tamaruser",
              "password" : "#!TawaR?u5er",
              "db_name"  : "DB_TAMAR_0046"
             },
    "0047" : {
              "host"     : "tamar-stg-site9999-dbinstance.cx7s2eephnro.ap-northeast-1.rds.amazonaws.com",
              "port"     : "3306",
              "user"     : "tamaruser",
              "password" : "#!TawaR?u5er",
              "db_name"  : "DB_TAMAR_0047"
             },
    "0048" : {
              "host"     : "tamar-stg-site9999-dbinstance.cx7s2eephnro.ap-northeast-1.rds.amazonaws.com",
              "port"     : "3306",
              "user"     : "tamaruser",
              "password" : "#!TawaR?u5er",
              "db_name"  : "DB_TAMAR_0048"
             },
    "0049" : {
              "host"     : "tamar-stg-site9999-dbinstance.cx7s2eephnro.ap-northeast-1.rds.amazonaws.com",
              "port"     : "3306",
              "user"     : "tamaruser",
              "password" : "#!TawaR?u5er",
              "db_name"  : "DB_TAMAR_0049"
             },
    "0050" : {
              "host"     : "tamar-stg-site9999-dbinstance.cx7s2eephnro.ap-northeast-1.rds.amazonaws.com",
              "port"     : "3306",
              "user"     : "tamaruser",
              "password" : "#!TawaR?u5er",
              "db_name"  : "DB_TAMAR_0050"
             },
    "0051" : {
              "host"     : "tamar-stg-site9999-dbinstance.cx7s2eephnro.ap-northeast-1.rds.amazonaws.com",
              "port"     : "3306",
              "user"     : "tamaruser",
              "password" : "#!TawaR?u5er",
              "db_name"  : "DB_TAMAR_0051"
             },
    "0052" : {
              "host"     : "tamar-stg-site9999-dbinstance.cx7s2eephnro.ap-northeast-1.rds.amazonaws.com",
              "port"     : "3306",
              "user"     : "tamaruser",
              "password" : "#!TawaR?u5er",
              "db_name"  : "DB_TAMAR_0052"
             },
    "0053" : {
              "host"     : "tamar-stg-site9999-dbinstance.cx7s2eephnro.ap-northeast-1.rds.amazonaws.com",
              "port"     : "3306",
              "user"     : "tamaruser",
              "password" : "#!TawaR?u5er",
              "db_name"  : "DB_TAMAR_0053"
             },
    "0054" : {
              "host"     : "tamar-stg-site9999-dbinstance.cx7s2eephnro.ap-northeast-1.rds.amazonaws.com",
              "port"     : "3306",
              "user"     : "tamaruser",
              "password" : "#!TawaR?u5er",
              "db_name"  : "DB_TAMAR_0054"
             },
    "0055" : {
              "host"     : "tamar-stg-site9999-dbinstance.cx7s2eephnro.ap-northeast-1.rds.amazonaws.com",
              "port"     : "3306",
              "user"     : "tamaruser",
              "password" : "#!TawaR?u5er",
              "db_name"  : "DB_TAMAR_0055"
             },
    "0056" : {
              "host"     : "tamar-stg-site9999-dbinstance.cx7s2eephnro.ap-northeast-1.rds.amazonaws.com",
              "port"     : "3306",
              "user"     : "tamaruser",
              "password" : "#!TawaR?u5er",
              "db_name"  : "DB_TAMAR_0056"
             },
    "0057" : {
              "host"     : "tamar-stg-site9999-dbinstance.cx7s2eephnro.ap-northeast-1.rds.amazonaws.com",
              "port"     : "3306",
              "user"     : "tamaruser",
              "password" : "#!TawaR?u5er",
              "db_name"  : "DB_TAMAR_0057"
             },
    "0058" : {
              "host"     : "tamar-stg-site9999-dbinstance.cx7s2eephnro.ap-northeast-1.rds.amazonaws.com",
              "port"     : "3306",
              "user"     : "tamaruser",
              "password" : "#!TawaR?u5er",
              "db_name"  : "DB_TAMAR_0058"
             },
    "0059" : {
              "host"     : "tamar-stg-site9999-dbinstance.cx7s2eephnro.ap-northeast-1.rds.amazonaws.com",
              "port"     : "3306",
              "user"     : "tamaruser",
              "password" : "#!TawaR?u5er",
              "db_name"  : "DB_TAMAR_0059"
             },
    "0060" : {
              "host"     : "tamar-stg-site9999-dbinstance.cx7s2eephnro.ap-northeast-1.rds.amazonaws.com",
              "port"     : "3306",
              "user"     : "tamaruser",
              "password" : "#!TawaR?u5er",
              "db_name"  : "DB_TAMAR_0060"
             },
    "0062" : {
              "host"     : "tamar-stg-site9999-dbinstance.cx7s2eephnro.ap-northeast-1.rds.amazonaws.com",
              "port"     : "3306",
              "user"     : "tamaruser",
              "password" : "#!TawaR?u5er",
              "db_name"  : "DB_TAMAR_0062"
             },
    "0063" : {
              "host"     : "tamar-stg-site9999-dbinstance.cx7s2eephnro.ap-northeast-1.rds.amazonaws.com",
              "port"     : "3306",
              "user"     : "tamaruser",
              "password" : "#!TawaR?u5er",
              "db_name"  : "DB_TAMAR_0063"
             },
    "0064" : {
              "host"     : "tamar-stg-site9999-dbinstance.cx7s2eephnro.ap-northeast-1.rds.amazonaws.com",
              "port"     : "3306",
              "user"     : "tamaruser",
              "password" : "#!TawaR?u5er",
              "db_name"  : "DB_TAMAR_0064"
             },
    "0065" : {
              "host"     : "tamar-stg-site9999-dbinstance.cx7s2eephnro.ap-northeast-1.rds.amazonaws.com",
              "port"     : "3306",
              "user"     : "tamaruser",
              "password" : "#!TawaR?u5er",
              "db_name"  : "DB_TAMAR_0065"
             },
    "0066" : {
              "host"     : "tamar-stg-site9999-dbinstance.cx7s2eephnro.ap-northeast-1.rds.amazonaws.com",
              "port"     : "3306",
              "user"     : "tamaruser",
              "password" : "#!TawaR?u5er",
              "db_name"  : "DB_TAMAR_0066"
             },
    "0067" : {
              "host"     : "tamar-stg-site9999-dbinstance.cx7s2eephnro.ap-northeast-1.rds.amazonaws.com",
              "port"     : "3306",
              "user"     : "tamaruser",
              "password" : "#!TawaR?u5er",
              "db_name"  : "DB_TAMAR_0067"
             },
    "0068" : {
              "host"     : "tamar-stg-site9999-dbinstance.cx7s2eephnro.ap-northeast-1.rds.amazonaws.com",
              "port"     : "3306",
              "user"     : "tamaruser",
              "password" : "#!TawaR?u5er",
              "db_name"  : "DB_TAMAR_0068"
             },
    "0069" : {
              "host"     : "tamar-stg-site9999-dbinstance.cx7s2eephnro.ap-northeast-1.rds.amazonaws.com",
              "port"     : "3306",
              "user"     : "tamaruser",
              "password" : "#!TawaR?u5er",
              "db_name"  : "DB_TAMAR_0069"
             },
    "0070" : {
              "host"     : "tamar-stg-site9999-dbinstance.cx7s2eephnro.ap-northeast-1.rds.amazonaws.com",
              "port"     : "3306",
              "user"     : "tamaruser",
              "password" : "#!TawaR?u5er",
              "db_name"  : "DB_TAMAR_0070"
             },
    "0071" : {
              "host"     : "tamar-stg-site9999-dbinstance.cx7s2eephnro.ap-northeast-1.rds.amazonaws.com",
              "port"     : "3306",
              "user"     : "tamaruser",
              "password" : "#!TawaR?u5er",
              "db_name"  : "DB_TAMAR_0071"
             },
    "0072" : {
              "host"     : "tamar-stg-site9999-dbinstance.cx7s2eephnro.ap-northeast-1.rds.amazonaws.com",
              "port"     : "3306",
              "user"     : "tamaruser",
              "password" : "#!TawaR?u5er",
              "db_name"  : "DB_TAMAR_0072"
             },
    "0073" : {
              "host"     : "tamar-stg-site9999-dbinstance.cx7s2eephnro.ap-northeast-1.rds.amazonaws.com",
              "port"     : "3306",
              "user"     : "tamaruser",
              "password" : "#!TawaR?u5er",
              "db_name"  : "DB_TAMAR_0073"
             },
    "0074" : {
              "host"     : "tamar-stg-site9999-dbinstance.cx7s2eephnro.ap-northeast-1.rds.amazonaws.com",
              "port"     : "3306",
              "user"     : "tamaruser",
              "password" : "#!TawaR?u5er",
              "db_name"  : "DB_TAMAR_0074"
             },
    "0079" : {
              "host"     : "tamar-stg-site9999-dbinstance.cx7s2eephnro.ap-northeast-1.rds.amazonaws.com",
              "port"     : "3306",
              "user"     : "tamaruser",
              "password" : "#!TawaR?u5er",
              "db_name"  : "DB_TAMAR_0079"
             },
    "0080" : {
              "host"     : "tamar-stg-site9999-dbinstance.cx7s2eephnro.ap-northeast-1.rds.amazonaws.com",
              "port"     : "3306",
              "user"     : "tamaruser",
              "password" : "#!TawaR?u5er",
              "db_name"  : "DB_TAMAR_0080"
             },
    "0082" : {
              "host"     : "tamar-stg-site9999-dbinstance.cx7s2eephnro.ap-northeast-1.rds.amazonaws.com",
              "port"     : "3306",
              "user"     : "tamaruser",
              "password" : "#!TawaR?u5er",
              "db_name"  : "DB_TAMAR_0082"
             },
    "0083" : {
              "host"     : "tamar-stg-site9999-dbinstance.cx7s2eephnro.ap-northeast-1.rds.amazonaws.com",
              "port"     : "3306",
              "user"     : "tamaruser",
              "password" : "#!TawaR?u5er",
              "db_name"  : "DB_TAMAR_0083"
             },
    "0084" : {
              "host"     : "tamar-stg-site9999-dbinstance.cx7s2eephnro.ap-northeast-1.rds.amazonaws.com",
              "port"     : "3306",
              "user"     : "tamaruser",
              "password" : "#!TawaR?u5er",
              "db_name"  : "DB_TAMAR_0084"
             },
    "0085" : {
              "host"     : "tamar-stg-site9999-dbinstance.cx7s2eephnro.ap-northeast-1.rds.amazonaws.com",
              "port"     : "3306",
              "user"     : "tamaruser",
              "password" : "#!TawaR?u5er",
              "db_name"  : "DB_TAMAR_0085"
             },
    "0086" : {
              "host"     : "tamar-stg-site9999-dbinstance.cx7s2eephnro.ap-northeast-1.rds.amazonaws.com",
              "port"     : "3306",
              "user"     : "tamaruser",
              "password" : "#!TawaR?u5er",
              "db_name"  : "DB_TAMAR_0086"
             },
    "0087" : {
              "host"     : "tamar-stg-site9999-dbinstance.cx7s2eephnro.ap-northeast-1.rds.amazonaws.com",
              "port"     : "3306",
              "user"     : "tamaruser",
              "password" : "#!TawaR?u5er",
              "db_name"  : "DB_TAMAR_0087"
             },
    "0088" : {
              "host"     : "tamar-stg-site9999-dbinstance.cx7s2eephnro.ap-northeast-1.rds.amazonaws.com",
              "port"     : "3306",
              "user"     : "tamaruser",
              "password" : "#!TawaR?u5er",
              "db_name"  : "DB_TAMAR_0088"
             },
    "0091" : {
              "host"     : "tamar-stg-site9999-dbinstance.cx7s2eephnro.ap-northeast-1.rds.amazonaws.com",
              "port"     : "3306",
              "user"     : "tamaruser",
              "password" : "#!TawaR?u5er",
              "db_name"  : "DB_TAMAR_0091"
             },
    "0092" : {
              "host"     : "tamar-stg-site9999-dbinstance.cx7s2eephnro.ap-northeast-1.rds.amazonaws.com",
              "port"     : "3306",
              "user"     : "tamaruser",
              "password" : "#!TawaR?u5er",
              "db_name"  : "DB_TAMAR_0092"
             },
    "0093" : {
              "host"     : "tamar-stg-site9999-dbinstance.cx7s2eephnro.ap-northeast-1.rds.amazonaws.com",
              "port"     : "3306",
              "user"     : "tamaruser",
              "password" : "#!TawaR?u5er",
              "db_name"  : "DB_TAMAR_0093"
             },
    "9998" : {
              "host"     : "tamar-stg-site9999-dbinstance.cx7s2eephnro.ap-northeast-1.rds.amazonaws.com",
              "port"     : "3306",
              "user"     : "tamaruser",
              "password" : "#!TawaR?u5er",
              "db_name"  : "DB_TAMAR_9998"
             },
    "9999" : {
              "host"     : "tamar-stg-site9999-dbinstance.cx7s2eephnro.ap-northeast-1.rds.amazonaws.com",
              "port"     : "3306",
              "user"     : "tamaruser",
              "password" : "#!TawaR?u5er",
              "db_name"  : "DB_TAMAR_9999"
             }
}
