{
    "0001" : {
                "co" : {},
                "ma" : {
                            "auth" : {
                                        "login_id"      : "esg_adsales@brainpad.co.jp",
                                        "password"      : "brainpad",
                                        "advertiser_id" : "5169"
                                     },
                            "ttl"  : 3
                       },
                "ao" : {
                            "no_transfer" : true,
                            "auth" : {
                                        "client_id"   : "bp",
                                        "client_name" : "株式会社ブレインパッド"
                                     },
                            "ttl"  : 3
                       },
                "so" : {
                            "auth" : {
                                        "aid"        : "brainpad",
                                        "foreign_id" : "1234123456789012"
                                     },
                            "rawdata" : false
                       },
                "ac" : {},
                "im" : {
                            "auth" : {
                                        "customer_id"   : "",
                                        "customer_name" : ""
                                     }
                       },
                "go" : {
                            "auth" : {
                                        "product"   : "INVITE_ADVERTISER",
                                        "entityId"  : 375335
                                     }
                       },
                "rt":  {
                            "rta"      : "RTA-d1b3-2d6a54c615f6",
                            "bridges"  : ["rt0041"]
                       }
             },
    "0003" : {
                "co" : {},
                "ma" : {
                            "auth" : {
                                        "login_id"      : "rtoaster-blade@microad.co.jp",
                                        "password"      : "vU3mXaZq",
                                        "advertiser_id" : "07033"
                                     },
                            "ttl"  : 3
                       },
                "so" : {
                            "auth" : {
                                        "aid"        : "brainpad",
                                        "foreign_id" : "1234123456789012"
                                     },
                            "rawdata" : false
                       }
             },
    "0004" : {
                "co" : {},
                "ma" : {
                            "auth" : {
                                        "login_id"      : "rtoaster-blade@microad.co.jp",
                                        "password"      : "vU3mXaZq",
                                        "advertiser_id" : ""
                                     },
                            "ttl"  : 3
                       },
                "go" : {
                            "auth" : {
                                        "product"   : "INVITE_ADVERTISER",
                                        "entityId"  : 467831
                                     }
                       }
             },
    "0005" : {
                "co" : {},
                "ma" : {
                            "split_transfer": true,
                            "auth" : {
                                        "login_id"      : "rtoaster-blade@microad.co.jp",
                                        "password"      : "vU3mXaZq",
                                        "advertiser_id" : ""
                                     },
                            "ttl"  : 3
                       },
                "sy" : {
                            "auth" : {
                                        "host"       : "sftp-s.c-ovn.jp",
                                        "port"       : 115,
                                        "username"   : "crmrg",
                                        "password"   : "{4Fg5vS?AO#LEx8MW_ahno3d",
                                        "remote_dir" : "mail_segment/www"
                                     }
                       }
             },
    "0006" : {
                "co" : {},
                "so" : {
                            "auth" : {
                                        "aid"        : "brainpad",
                                        "foreign_id" : "1234123456789012"
                                     },
                            "ttl"  : 3,
                            "rawdata" : false
                       },
                "ma" : {
                            "split_transfer": true,
                            "auth" : {
                                        "login_id"      : "rtoaster-blade@microad.co.jp",
                                        "password"      : "vU3mXaZq",
                                        "advertiser_id" : ""
                                     },
                            "ttl"  : 3
                       }
             },
    "0007" : {
                "so" : {
                            "auth" : {
                                        "aid"        : "brainpad",
                                        "foreign_id" : "1234123456789012"
                                     },
                            "ttl"  : 3,
                            "rawdata" : false
                       }
             },
    "0008" : {
                "co" : {},
                "so" : {
                            "auth" : {
                                        "aid"        : "dcap",
                                        "foreign_id" : "1234123456789012"
                                     },
                            "ttl"  : 3,
                            "rawdata" : false
                       },
                "rt":  {
                            "rta"      : "RTA-5589-1c1cad2e1882"
                       }
             },
    "0090" : {
                "sy" : {
                            "auth" : {
                                        "host"       : "sftp-s.c-ovn.jp",
                                        "port"       : 115,
                                        "username"   : "crmrg",
                                        "password"   : "{4Fg5vS?AO#LEx8MW_ahno3d",
                                        "remote_dir" : "mail_segment/stg"
                                     }
                       }
             },
    "0009" : {
                "co" : {},
                "ao" : {
                            "no_transfer" : true,
                            "auth" : {
                                        "client_id"   : "gdo",
                                        "client_name" : "株式会社ゴルフダイジェスト・オンライン"
                                     },
                            "ttl"  : 3
                       },
                "so" : {
                            "split_transfer": true,
                            "auth" : {
                                        "aid"        : "brainpad_gdo",
                                        "foreign_id" : "1234123456789012"
                                     },
                            "ttl"  : 3,
                            "rawdata" : false
                       },
                "ma" : {
                            "split_transfer": true,
                            "auth" : {
                                        "login_id"      : "rtoaster-blade@microad.co.jp",
                                        "password"      : "vU3mXaZq",
                                        "advertiser_id" : "7602"
                                     },
                            "ttl"  : 3
                       },
                "ac" : {
                            "split_transfer": true
                       },
                "im" : {
                            "auth" : {
                                        "customer_id"   : "5877",
                                        "customer_name" : "ゴルフダイジェスト・オンライン"
                                     }
                       }
             },
    "0010" : {
                "rt":  {
                            "rta"      : "RTA-0bb7-1ebd063d1a43",
                            "bridges"  : ["rt0082"]
                       },
                "co" : {}
             },
    "0011" : {
                "co" : {},
                "so" :  {
                            "auth" : {
                                        "aid"        : "brainpad",
                                        "foreign_id" : "fd81a03b4f87d727"
                                     },
                            "ttl"  : 3,
                            "rawdata" : false
                        },
                "ma" : {
                            "auth" : {
                                        "login_id"      : "rtoaster-blade@microad.co.jp",
                                        "password"      : "vU3mXaZq",
                                        "advertiser_id" : ""
                                     },
                            "ttl"  : 3
                       },
                "rt":  {
                            "rta"      : "RTA-fd81-a03b4f87d727"
                       }
             },
    "0012" : {
                "co" : {},
                "so" : {
                            "auth" : {
                                        "aid"        : "brainpad",
                                        "foreign_id" : ""
                                     },
                            "ttl"  : 3,
                            "rawdata" : false
                       }
             },
    "0013" : {
                "co" : {},
                "so" : {
                            "auth" : {
                                        "aid"        : "brainpad",
                                        "foreign_id" : ""
                                     },
                            "ttl"  : 3,
                            "rawdata" : false
                       },
                "rt":  {
                            "rta"      : "RTA-1e50-b27583f3f4fa"
                       }
             },
    "0014" : {
                "co" : {},
                "so" : {
                            "auth" : {
                                        "aid"        : "brainpad",
                                        "foreign_id" : ""
                                     },
                            "ttl"  : 3,
                            "rawdata" : false
                       },
                "rt":  {
                            "rta"      : "RTA-1e50-b275d6f54ba2",
                            "bridges"  : ["rt0013"]
                       }
             },
    "0018" : {
                "co" : {},
                "so" :  {
                            "auth" : {
                                        "aid"        : "brainpad",
                                        "foreign_id" : "27711f4486ab1c9d"
                                     },
                            "ttl"  : 3,
                            "rawdata" : false
                        },
                "ma" :  {
                            "auth" : {
                                        "login_id"      : "rtoaster-blade@microad.co.jp",
                                        "password"      : "vU3mXaZq",
                                        "advertiser_id" : ""
                                     },
                            "ttl"  : 3
                        }
             },
    "0019" : {
                "co" : {},
                "rs" : {
                       },
                "so" : {
                            "auth" : {
                                        "aid"        : "brainpad",
                                        "foreign_id" : ""
                                     },
                            "ttl"  : 3,
                            "rawdata" : false
                       }
             },
    "0020" : {
                "co" : {},
                "ma" : {
                            "auth" : {
                                        "login_id"      : "rtoaster-blade@microad.co.jp",
                                        "password"      : "vU3mXaZq",
                                        "advertiser_id" : ""
                                     },
                            "ttl"  : 3,
                            "rawdata" : false
                       }
             },
    "0021" : {
                "co" : {},
                "so" : {
                            "auth" : {
                                        "aid"        : "brainpad",
                                        "foreign_id" : ""
                                     },
                            "ttl"  : 3,
                            "rawdata" : false
                       }
             },
    "0022" : {
                "co" : {},
                "so" : {
                            "auth" : {
                                        "aid"        : "brainpad",
                                        "foreign_id" : ""
                                     },
                            "ttl"  : 3,
                            "rawdata" : false
                       }
             },
    "0023" : {
                "co" : {},
                "ma" : {
                            "auth" : {
                                        "login_id"      : "rtoaster-blade@microad.co.jp",
                                        "password"      : "vU3mXaZq",
                                        "advertiser_id" : ""
                                     },
                            "ttl"  : 3
                       }
             },
    "0025" : {
                "co" : {},
                "so" : {
                            "auth" : {
                                        "aid"        : "brainpad",
                                        "foreign_id" : ""
                                     },
                            "ttl"  : 3,
                            "rawdata" : false
                       }
             },
    "0026" : {
                "co" : {},
                "ac" : {},
                "so" : {
                            "auth" : {
                                        "aid"        : "brainpad",
                                        "foreign_id" : ""
                                     },
                            "ttl"  : 3,
                            "rawdata" : false
                       }
             },
    "0027" : {
                "co" : {},
                "so" : {
                            "auth" : {
                                        "aid"        : "brainpad",
                                        "foreign_id" : ""
                                     },
                            "ttl"  : 3,
                            "rawdata" : false
                       }
             },
    "0028" : {
                "co" : {},
                "so" : {
                            "auth" : {
                                        "aid"        : "brainpad",
                                        "foreign_id" : ""
                                     },
                            "ttl"  : 3,
                            "rawdata" : false
                       }
             },
    "0029" : {
                "co" : {},
                "so" : {
                            "auth" : {
                                        "aid"        : "brainpad",
                                        "foreign_id" : ""
                                     },
                            "ttl"  : 3,
                            "rawdata" : false
                       }
             },
    "0030" : {
                "co" : {},
                "ac" : {},
                "so" : {
                            "auth" : {
                                        "aid"        : "brainpad",
                                        "foreign_id" : ""
                                     },
                            "ttl"  : 3,
                            "rawdata" : false
                       }
             },
    "0033" : {
                "co" : {},
                "so" : {
                            "auth" : {
                                        "aid"        : "brainpad",
                                        "foreign_id" : ""
                                     },
                            "ttl"  : 3,
                            "rawdata" : false
                       },
                "ma" : {
                            "auth" : {
                                        "login_id"      : "rtoaster-blade@microad.co.jp",
                                        "password"      : "vU3mXaZq",
                                        "advertiser_id" : ""
                                     },
                            "ttl"  : 3
                       }
             },
    "0034" : {
                "co" : {},
                "ma" : {
                            "auth" : {
                                        "login_id"      : "rtoaster-blade@microad.co.jp",
                                        "password"      : "vU3mXaZq",
                                        "advertiser_id" : "10494"
                                     },
                            "ttl"  : 3
                       },
                "so" : {
                            "auth" : {
                                        "aid"        : "brainpad",
                                        "foreign_id" : ""
                                     },
                            "ttl"  : 3,
                            "rawdata" : false
                       },
                "sy" : {
                            "auth" : {
                                        "host"       : "sftp-s.c-ovn.jp",
                                        "port"       : 115,
                                        "username"   : "mail_diamond",
                                        "password"   : "QN_tw1/5a",
                                        "remote_dir" : "output"
                                     }
                       }
             },
    "0035" : {
                "co" : {},
                "ma" : {
                            "auth" : {
                                        "login_id"      : "rtoaster-blade@microad.co.jp",
                                        "password"      : "vU3mXaZq",
                                        "advertiser_id" : ""
                                     },
                            "ttl"  : 3
                       }
             },
    "0036" : {
                "co" : {},
                "ma" : {
                            "auth" : {
                                        "login_id"      : "rtoaster-blade@microad.co.jp",
                                        "password"      : "vU3mXaZq",
                                        "advertiser_id" : "449"
                                     },
                            "ttl"  : 3
                       },
                "so" : {
                            "auth" : {
                                        "aid"        : "brainpad",
                                        "foreign_id" : "a3c33a32cfeab9f8"
                                     },
                            "ttl"  : 3,
                            "rawdata" : false
                       }
             },
    "0037" : {
                "co" : {},
                "so" : {
                            "auth" : {
                                        "aid"        : "brainpad",
                                        "foreign_id" : "c778ddc47726538d"
                                     },
                            "ttl"  : 3,
                            "rawdata" : false
                       },
                "rt":  {
                            "rta"      : "RTA-c778-ddc47726538d"
                       }
             },
    "0038" : {
                "co" : {},
                "ma" : {
                            "auth" : {
                                        "login_id"      : "rtoaster-blade@microad.co.jp",
                                        "password"      : "vU3mXaZq",
                                        "advertiser_id" : ""
                                     },
                            "ttl"  : 3
                       }
             },
    "0039" : {
                "co" : {},
                "so" : {
                            "auth" : {
                                        "aid"        : "brainpad",
                                        "foreign_id" : "280641eb17385d52"
                                     },
                            "ttl"  : 3,
                            "rawdata" : false
                       }
             },
    "0041" : {
                "co" : {},
                "rt":  {
                            "rta"      : "RTA-5796-0fde31e34da5"
                       }
             },
    "0042" : {
                "co" : {},
                "ma" : {
                            "auth" : {
                                        "login_id"      : "rtoaster-blade@microad.co.jp",
                                        "password"      : "vU3mXaZq",
                                        "advertiser_id" : ""
                                     },
                            "ttl"  : 3
                       }
             },
    "0043" : {
                "co" : {},
                "rt":  {
                            "rta"      : "RTA-0a73-9655eaa6948f",
                            "bridges"  : ["rt0011", "rt0044", "rt0045", "rt0046", "rt0047", "rt0048", "rt0049"]
                       },
                "so" : {
                            "auth" : {
                                        "aid"        : "brainpad",
                                        "foreign_id" : "0a739655eaa6948f"
                                     },
                            "ttl"  : 3,
                            "rawdata" : false
                       }
             },
    "0044" : {
                "co" : {},
                "rt":  {
                            "rta"      : "RTA-0a73-96551036f620"
                       }
             },
    "0045" : {
                "co" : {},
                "rt":  {
                            "rta"      : "RTA-0a73-965597a1d581"
                       }
             },
    "0046" : {
                "co" : {},
                "rt":  {
                            "rta"      : "RTA-0a73-96552b503d2e"
                       },
                "ma" : {
                            "auth" : {
                                        "login_id"      : "rtoaster-blade@microad.co.jp",
                                        "password"      : "vU3mXaZq",
                                        "advertiser_id" : "10689"
                                     },
                            "ttl"  : 3
                       },
                "so" : {
                            "auth" : {
                                        "aid"        : "brainpad",
                                        "foreign_id" : "0a7396552b503d2e"
                                     },
                            "ttl"  : 3,
                            "rawdata" : false
                       }
             },
    "0047" : {
                "co" : {},
                "rt":  {
                            "rta"      : "RTA-0a73-9655b4980325"
                       }
             },
    "0048" : {
                "co" : {},
                "rt":  {
                            "rta"      : "RTA-0a73-9655be80674d"
                       },
                "so" : {
                            "auth" : {
                                        "aid"        : "brainpad",
                                        "foreign_id" : "0a739655be80674d"
                                     },
                            "ttl"  : 3,
                            "rawdata" : false
                       }
             },
    "0049" : {
                "co" : {},
                "rt":  {
                            "rta"      : "RTA-0a73-9655a76a6500"
                       }
             },
    "0050" : {
                "co" : {},
                "rt":  {
                            "rta"      : "RTA-07e7-4c9aa41a14fe",
                            "bridges"  : ["rt0051", "rt0053", "rt0054"]
                       }
             },
    "0051" : {
                "co" : {},
                "rt":  {
                            "rta"      : "RTA-07e7-4c9a9d401084",
                            "bridges"  : ["rt0050", "rt0053", "rt0054"]
                       }
             },
    "0052" : {
                "co" : {},
                "so" : {
                            "auth" : {
                                        "aid"        : "brainpad",
                                        "foreign_id" : ""
                                     },
                            "ttl"  : 3,
                            "rawdata" : false
                       }
             },
    "0053" : {
                "co" : {},
                "rt":  {
                            "rta"      : "RTA-07e7-4c9a879877f0",
                            "bridges"  : ["rt0050", "rt0051", "rt0054"]
                       }
             },
    "0054" : {
                "co" : {},
                "rt":  {
                            "rta"      : "RTA-07e7-4c9a62ab0c59",
                            "bridges"  : ["rt0050", "rt0051", "rt0053"]
                       }
             },
    "0055" : {
                "co" : {},
                "so" : {
                            "auth" : {
                                        "aid"        : "brainpad",
                                        "foreign_id" : "ed3470ba68e5f176"
                                     },
                            "ttl"  : 3,
                            "rawdata" : false
                       },
                "rt":  {
                            "rta"      : "RTA-ed34-70ba68e5f176"
                       }
             },
    "0056" : {
                "co" : {},
                "rt":  {
                            "rta"      : "RTA-ed34-70ba777a6764"
                       }
             },
    "0057" : {
                "co" : {},
                "so" : {
                            "auth" : {
                                        "aid"        : "brainpad",
                                        "foreign_id" : "ed3470babb23d9bc"
                                     },
                            "ttl"  : 3,
                            "rawdata" : false
                       },
                "rt":  {
                            "rta"      : "RTA-ed34-70babb23d9bc",
                            "bridges"  : ["rt0055"]
                       }
             },
    "0058" : {
                "co" : {},
                "rt":  {
                            "rta"      : "RTA-ed34-70ba417e3a10",
                            "bridges"  : ["rt0056"]
                       }
             },
    "0059" : {
                "co" : {},
                "so" : {
                            "auth" : {
                                        "aid"        : "brainpad",
                                        "foreign_id" : "edcdcaadf48dbe21"
                                     },
                            "ttl"  : 3,
                            "rawdata" : false
                       },
                "rt":  {
                            "rta"      : "RTA-edcd-caadf48dbe21",
                            "bridges"  : ["rt0085", "rt0086", "rt0087", "rt0088"]
                       }
             },
    "0060" : {
                "co" : {},
                "so" : {
                            "auth" : {
                                        "aid"        : "brainpad",
                                        "foreign_id" : "4e8fef4c0eb6875f"
                                     },
                            "ttl"  : 3,
                            "rawdata" : false
                       },
                "ac" : {},
                "ma" : {
                            "auth" : {
                                        "login_id"      : "rtoaster-blade@microad.co.jp",
                                        "password"      : "vU3mXaZq",
                                        "advertiser_id" : "09340"
                                     },
                            "ttl"  : 3
                       }
             },
    "0061" : {
                "sy" : {
                            "auth" : {
                                        "host"       : "sftp-s.c-ovn.jp",
                                        "port"       : 115,
                                        "username"   : "mail_fufururu",
                                        "password"   : "E!tx8(PuFB",
                                        "remote_dir" : "request"
                                     }
                       }
             },
    "0062" : {
                "co" : {},
                "ma" : {
                            "auth" : {
                                        "login_id"      : "rtoaster-blade@microad.co.jp",
                                        "password"      : "vU3mXaZq",
                                        "advertiser_id" : "09201"
                                     },
                            "ttl"  : 3
                       }
             },
    "0063" : {
                "co" : {},
                "so" : {
                            "auth" : {
                                        "aid"        : "brainpad",
                                        "foreign_id" : "ac46a363d88cf920"
                                     },
                            "ttl"  : 3,
                            "rawdata" : false
                       }
             },
    "0064" : {
                "co" : {},
                "im" : {
                            "auth" : {
                                        "customer_id"   : "3920",
                                        "customer_name" : "IntimateMergerコーポレート"
                                     }
                       },
                "rt":  {
                            "rta"      : "RTA-37f8-24c24c8b180b"
                       }
             },
    "0065" : {
                "rt":  {
                            "rta"      : "RTA-6d56-70e0ec1700a0"
                       }
             },
    "0066" : {
                "rt":  {
                            "rta"      : "RTA-6d56-70e0695989a2"
                       }
             },
    "0067" : {
                "rt":  {
                            "rta"      : "RTA-6d56-70e06aede49e"
                       }
             },
    "0068" : {
                "co" : {},
                "rt":  {
                            "rta"      : "RTA-898b-12dbccffb51c"
                       }
             },
    "0069" : {
                "co" : {},
                "rt":  {
                            "rta"      : "RTA-5ff6-f2f75985857b"
                       }
             },
    "0070" : {
                "co" : {},
                "so" : {
                            "auth" : {
                                        "aid"        : "brainpad",
                                        "foreign_id" : "da8e1d41c35927f3"
                                     },
                            "ttl"  : 3,
                            "rawdata" : false
                       }
             },
    "0071" : {
                "co" : {},
                "rt":  {
                            "rta"      : "RTA-bc8a-4cbfa43f824e",
                            "bridges"  : ["rt0072", "rt0082"]
                       }
             },
    "0072" : {
                "co" : {},
                "rt":  {
                            "rta"      : "RTA-bc8a-4cbfad1ab092",
                            "bridges"  : ["rt0071", "rt0082"]
                       }
             },
    "0073" : {
                "co" : {},
                "go" : {
                            "auth" : {
                                        "product"   : "INVITE_PARTNER",
                                        "entityId"  : 465582
                                     }
                       }
             },
    "0074" : {
                "co" : {},
                "so" : {
                            "auth" : {
                                        "aid"        : "brainpad",
                                        "foreign_id" : "767a3b562cb0677b"
                                     },
                            "ttl"  : 3,
                            "rawdata" : false
                       }
             },
    "0079" : {
                "co" : {},
                "so" : {
                            "auth" : {
                                        "aid"        : "brainpad",
                                        "foreign_id" : "c529321f6852590d"
                                     },
                            "ttl"  : 3,
                            "rawdata" : false
                       }
             },
    "0080" : {
                "rt":  {
                            "rta"      : "RTA-d08b-75cb29ab1925"
                       }
             },
    "0082" : {
                "rt":  {
                            "rta"      : "RTA-bc8a-4cbf97a36acb"
                       },
                "co" : {}
             },
    "0083" : {
                "rt":  {
                            "rta"      : "RTA-768c-56b1144e1813"
                       },
                "co" : {}
             },
    "0084" : {
                "rt":  {
                            "rta"      : "RTA-4895-70ee3bf3b6bb"
                       },
                "go" : {
                            "auth" : {
                                        "product"   : "INVITE_ADVERTISER",
                                        "entityId"  : 322765
                                     }
                       },
                "co" : {}
             },
    "0085" : {
                "co" : {},
                "rt" : {
                            "rta"      : "RTA-2c01-5596f938cccb",
                            "bridges"  : ["rt0059", "rt0086", "rt0087", "rt0088"]
                       }
             },
    "0086" : {
                "co" : {},
                "rt" : {
                            "rta"      : "RTA-2c01-5596c1f14009",
                            "bridges"  : ["rt0059", "rt0085", "rt0087", "rt0088"]
                       }
             },
    "0087" : {
                "co" : {},
                "rt" : {
                            "rta"      : "RTA-2c01-5596f42b8070",
                            "bridges"  : ["rt0059", "rt0085", "rt0086", "rt0088"]
                       }
             },
    "0088" : {
                "co" : {},
                "rt" : {
                            "rta"      : "RTA-2c01-559694eb9883",
                            "bridges"  : ["rt0059", "rt0085", "rt0086", "rt0087"]
                       }
             },
    "0091" : {
                "co" : {},
                "so" : {
                            "auth" : {
                                        "aid"        : "brainpad",
                                        "foreign_id" : "b09a6f44a541c78c"
                                     },
                            "ttl"  : 3,
                            "rawdata" : false
                       }
             },
    "0092" : {
                "co" : {},
                "rt":  {
                            "rta"      : "RTA-3da8-975e20d10abd",
                            "bridges"  : ["rt0093"]
                       }
             },
    "0093" : {
                "co" : {},
                "rt":  {
                            "rta"      : "RTA-a849-9029a3fc8bd8",
                            "bridges"  : ["rt0092"]
                       }
             },
    "9998" : {
                "rt": {
                            "rta"      : "RTA-aaaa-bbbbbbbbbbbb"
                       }
             },
    "9999" : {
                "ma" : {
                            "auth" : {
                                        "login_id"      : "login_id_9999",
                                        "password"      : "password_9999",
                                        "advertiser_id" : "advertiser_id_9999"
                                     },
                            "ttl"  : 3
                       },
                "ao" : {
                            "no_transfer" : true,
                            "auth" : {
                                        "client_id"   : "bp",
                                        "client_name" : "株式会社ブレインパッド"
                                     },
                            "ttl"  : 3
                       },
                "so" : {
                            "auth" : {
                                        "aid"        : "brainpad",
                                        "foreign_id" : "1234123456789012"
                                     },
                            "rawdata" : true,
                            "advertiser_id" : "2369"
                       },
                "ac" : {
                            "auth" : {},
                            "ttl"  : 3
                       },
                "sy" : {
                            "auth" : {
                                        "host"       : "sftp-s.c-ovn.jp",
                                        "port"       : 115,
                                        "username"   : "rtoaster9999",
                                        "password"   : "rtoaster9999",
                                        "remote_dir" : "/receive/sy/attrs"
                                     }
                       },
                "go" : {
                            "auth" : {
                                        "entityId" : 37533
                                     }
                       },
                "im" : {
                            "auth" : {
                                        "customer_id"   : "5470",
                                        "customer_name" : "ブレインパッドテスト"
                                     }
                       },
                "rt":  {
                            "rta"      : "RTA-b935-0f9863ac8b0a",
                            "bridges"  : ["rt9998"]
                       },
                "ydmp":{}
             }
}
